                                                                                                                                                      
                                                                                                                                                      
                                                                                                                                                      
                                                                                                                                                      
                                                                          .   ..,,,,,,...                                                             
                                                                    .  .,,,,,,,,,,,,,,,,,,,,,,,.                                                      
                                                                *  .,,,,,,,/////////////////,,,,,,.                                                   
                                                              *,,,,,,,////////////////////////////,,,.                                                
                                                         ,***,,,,,*///////////////////////////////////*,                                              
                                                     .****,,,,,*/////////////////////////(((((((//////////.                                           
                                                  .*****,,,,,//////////////////////////((((((((((((((///////*.                                        
                                               ,******,,,,*////////////////////////////(((((((((((((((((//*.                                          
                                            .*******,,,,*//////////////////////////////(((((((((((((((((,                                             
                                          ,*******,,,,*/////////////////////////////////((((((((((((((.            .                                  
                                        ,*******,,,,*/////////////////////////////////////(((((((((*,       */(/////*                                 
                                      ,********,,,*////////////////////////////////////////((((((,*..,/(((((((((/////*,                               
                                    .********,,,,////////////////////////////////////////////(*,(((((((((((((((((/////**                              
                                   ,********,,,///////////////////////////////////////////////((((((((((((((((((((/////**.                            
                                  *********,,*//////////////////////////////////////////////////(((((((((((((((((((/////**,                           
                                ,*********,,*/////////////////////////////////////////////////////(((((((((((((((((//////***                          
                               ,*********,,//////////////////////////////////////////////////////////((((((((((((((//////***,                         
                              ,*********,*//////////////////////////////////////////////////////////////(((((((((((///////***,.                       
                             .,********,//////////////////////////////////////////////////////////////////////////////////****.,                      
                            .,,.******,////////////////////////////////////////////////////////////////////////////////////***, .                     
                            ,,,.,.***,/////////////////////////////////////////////////////////////////////////////////////****.*                     
                           ,.**.,,.**////////**,....,,,,,,.......,****/////////////////////////////////////////////////////****,                      
                          ,,,,,,,,,.*,.,,,,,,,,...,,,,,,,,,,,.,..,,. ,,,,,..,//////////////////////////////////////////////****,..                    
                          ,,,.,,,,,,,,,,,,,,,,,//*.,,,,,,,,,.*/*,,.  ,,,,,,,,,,,,..////////////////*///**//////////////////*****                      
                         ,,,  .,.///.,,,,,,,,,,,,,,,,,,,,,,,,,,,,    ,,,,,,,,,//,,,,,./////////////*,,,.,//////////////////****, .                    
                       (.,,.   .,.,.,,,,,,,,..                       ..,,,,,,.,,.,,,,*/////////////////////////////////////****..                     
                        ,,,     .,,,,,.                                   .,,,,,,,,,./////////////////////////////////////*****                       
                        ,,                                              ,,,,,,,,,,,.//////////////////////////////////////***** .                     
                        ,.                                           .,,,,,,,,,,,,.//////////////////////////////////////*****.                       
                      ..,,                                          ,,,,,,,,,,,,.*///////////////////////////////////////*****                        
                       ,,,                                          ,,,,,,,,,,,*////////////////////////////////////////*****                         
                      .,,,                                          ,,,,,,,,.//////////////////////////////////////////*****,                         
                      ,,,.                                         .,,,.,.*///////////////////////////////////////////******                          
                      ,,,                                            ,*//////////////////////////////////////////////******..                         
                     .,,.                                             *//////////////////////////////////////////////*****,                           
                     ,,,                                                ////////////////////////////////////////////*****,                            
                    .,,.                      ....../////////*.          .////////////////////////////////////////******,                             
                   .,,,                 ,,,,,.,,,,,*/////////////*         */////////////////////////////////////******,                              
                   .,,.                ,,,,*//*.,,,//////////////////,       ///////////////////////////////////******..                              
                  .,,,                .,,,,,,,,,,.///////////////////////.    ,////////////////////////////////******,,                               
                  .,,.                ,,,,,,,,,,.///////////////////////////*   */////////////////////////////******.                                 
                  ,,,                .,,,,,,,,,,*///////////////////////////////, ///////////////////////////******, /                                
                 ,,,,.              ,,,.**.,,,,,////////////////////////////////////////////////////////////******* (                                 
                .,,, *            ,.,,,,//.,,, ////////////////////////////////////////////////////////////*******, .                                 
               .,,,.*              ,,,,,,,,,,./////////////////////////////////////////////////////////////******** .                                 
              .,,,.               ,,,,,,,,,,,*/////////////////////////////////////////////////////////////******** .                                 
             .,,,,               .,,,,,,,,,,,////////////////////*. *//////////////////////////////////////*******,,.                                 
             ,,,,                ,,,*/*.,,,.//////////////////,      ///////////////////////////////////////***,,,,,                                  
            ,,,,                ,,,,***.,,.///////, ./////*.         ,////////////////////////////////////*****,,,                                    
            ,,,.             . .,,,,,,,,,,*///,      ,/*              */////////////////////////////***********. .                                    
           .,,              . .,,,,,  .,,./.                           //////////////////////*************,. ,                                        
           ,,                .,,.      .                               .//////////******************,   ,                                             
                                                                        *******************,.   * .                                                   
                                                                         ****,..   . ,,.                                                              
                                                                                                                                                      
                                                                                                                                                      
                                                     
<Vos soldats quittent vos rangs, et vous vous retrouvez sans protection>                                                                                                 
